Log file opened on Thu Sep  5 16:47:09 2019
Host: swarm.che.wisc.edu  pid: 37702  rank ID: 0  number of ranks:  1
                       :-) GROMACS - gmx mdrun, 2016 (-:

                            GROMACS is written by:
     Emile Apol      Rossen Apostolov  Herman J.C. Berendsen    Par Bjelkmar   
 Aldert van Buuren   Rudi van Drunen     Anton Feenstra    Gerrit Groenhof  
 Christoph Junghans   Anca Hamuraru    Vincent Hindriksen Dimitrios Karkoulis
    Peter Kasson        Jiri Kraus      Carsten Kutzner      Per Larsson    
  Justin A. Lemkul   Magnus Lundborg   Pieter Meulenhoff    Erik Marklund   
   Teemu Murtola       Szilard Pall       Sander Pronk      Roland Schulz   
  Alexey Shvetsov     Michael Shirts     Alfons Sijbers     Peter Tieleman  
  Teemu Virolainen  Christian Wennberg    Maarten Wolf   
                           and the project leaders:
        Mark Abraham, Berk Hess, Erik Lindahl, and David van der Spoel

Copyright (c) 1991-2000, University of Groningen, The Netherlands.
Copyright (c) 2001-2015, The GROMACS development team at
Uppsala University, Stockholm University and
the Royal Institute of Technology, Sweden.
check out http://www.gromacs.org for more information.

GROMACS is free software; you can redistribute it and/or modify it
under the terms of the GNU Lesser General Public License
as published by the Free Software Foundation; either version 2.1
of the License, or (at your option) any later version.

GROMACS:      gmx mdrun, version 2016
Executable:   /app/gromacs_2016/bin/gmx
Data prefix:  /app/gromacs_2016
Working dir:  /home/bdallin/MDLigands/peptides/final_structures/charmm36-jul2017.ff/non_ga_qkk_2plus/em_setup_files
Command line:
  gmx mdrun -v -nt 1 -deffnm non_ga_qkk_2plus_em

GROMACS version:    2016
Precision:          single
Memory model:       64 bit
MPI library:        thread_mpi
OpenMP support:     enabled (GMX_OPENMP_MAX_THREADS = 32)
GPU support:        disabled
SIMD instructions:  AVX2_256
FFT library:        fftw-3.3.3-sse2
RDTSCP usage:       enabled
TNG support:        enabled
Hwloc support:      disabled
Tracing support:    disabled
Built on:           Wed Oct 26 17:51:34 CDT 2016
Built by:           rpoyner@swarm.che.wisc.edu [CMAKE]
Build OS/arch:      Linux 3.10.0-327.el7.x86_64 x86_64
Build CPU vendor:   Intel
Build CPU brand:    Intel(R) Xeon(R) CPU E5-2690 v4 @ 2.60GHz
Build CPU family:   6   Model: 79   Stepping: 1
Build CPU features: aes apic avx avx2 clfsh cmov cx8 cx16 f16c fma hle htt lahf mmx msr nonstop_tsc pcid pclmuldq pdcm pdpe1gb popcnt pse rdrnd rdtscp rtm sse2 sse3 sse4.1 sse4.2 ssse3 tdt x2apic
C compiler:         /usr/bin/cc GNU 4.8.5
C compiler flags:    -march=core-avx2     -O3 -DNDEBUG -funroll-all-loops -fexcess-precision=fast  
C++ compiler:       /usr/bin/c++ GNU 4.8.5
C++ compiler flags:  -march=core-avx2    -std=c++0x   -O3 -DNDEBUG -funroll-all-loops -fexcess-precision=fast  


Running on 1 node with total 28 cores, 56 logical cores
Hardware detected:
  CPU info:
    Vendor: Intel
    Brand:  Intel(R) Xeon(R) CPU E5-2690 v4 @ 2.60GHz
    Family: 6   Model: 79   Stepping: 1
    Features: aes apic avx avx2 clfsh cmov cx8 cx16 f16c fma hle htt lahf mmx msr nonstop_tsc pcid pclmuldq pdcm pdpe1gb popcnt pse rdrnd rdtscp rtm sse2 sse3 sse4.1 sse4.2 ssse3 tdt x2apic
    SIMD instructions most likely to fit this hardware: AVX2_256
    SIMD instructions selected at GROMACS compile time: AVX2_256

  Hardware topology: Basic
    Sockets, cores, and logical processors:
      Socket  0: [   0  28] [   1  29] [   2  30] [   3  31] [   4  32] [   5  33] [   6  34] [   7  35] [   8  36] [   9  37] [  10  38] [  11  39] [  12  40] [  13  41]
      Socket  1: [  14  42] [  15  43] [  16  44] [  17  45] [  18  46] [  19  47] [  20  48] [  21  49] [  22  50] [  23  51] [  24  52] [  25  53] [  26  54] [  27  55]


++++ PLEASE READ AND CITE THE FOLLOWING REFERENCE ++++
M. J. Abraham, T. Murtola, R. Schulz, S. Páll, J. C. Smith, B. Hess, E.
Lindahl
GROMACS: High performance molecular simulations through multi-level
parallelism from laptops to supercomputers
SoftwareX 1 (2015) pp. 19-25
-------- -------- --- Thank You --- -------- --------


++++ PLEASE READ AND CITE THE FOLLOWING REFERENCE ++++
S. Páll, M. J. Abraham, C. Kutzner, B. Hess, E. Lindahl
Tackling Exascale Software Challenges in Molecular Dynamics Simulations with
GROMACS
In S. Markidis & E. Laure (Eds.), Solving Software Challenges for Exascale 8759 (2015) pp. 3-27
-------- -------- --- Thank You --- -------- --------


++++ PLEASE READ AND CITE THE FOLLOWING REFERENCE ++++
S. Pronk, S. Páll, R. Schulz, P. Larsson, P. Bjelkmar, R. Apostolov, M. R.
Shirts, J. C. Smith, P. M. Kasson, D. van der Spoel, B. Hess, and E. Lindahl
GROMACS 4.5: a high-throughput and highly parallel open source molecular
simulation toolkit
Bioinformatics 29 (2013) pp. 845-54
-------- -------- --- Thank You --- -------- --------


++++ PLEASE READ AND CITE THE FOLLOWING REFERENCE ++++
B. Hess and C. Kutzner and D. van der Spoel and E. Lindahl
GROMACS 4: Algorithms for highly efficient, load-balanced, and scalable
molecular simulation
J. Chem. Theory Comput. 4 (2008) pp. 435-447
-------- -------- --- Thank You --- -------- --------


++++ PLEASE READ AND CITE THE FOLLOWING REFERENCE ++++
D. van der Spoel, E. Lindahl, B. Hess, G. Groenhof, A. E. Mark and H. J. C.
Berendsen
GROMACS: Fast, Flexible and Free
J. Comp. Chem. 26 (2005) pp. 1701-1719
-------- -------- --- Thank You --- -------- --------


++++ PLEASE READ AND CITE THE FOLLOWING REFERENCE ++++
E. Lindahl and B. Hess and D. van der Spoel
GROMACS 3.0: A package for molecular simulation and trajectory analysis
J. Mol. Mod. 7 (2001) pp. 306-317
-------- -------- --- Thank You --- -------- --------


++++ PLEASE READ AND CITE THE FOLLOWING REFERENCE ++++
H. J. C. Berendsen, D. van der Spoel and R. van Drunen
GROMACS: A message-passing parallel molecular dynamics implementation
Comp. Phys. Comm. 91 (1995) pp. 43-56
-------- -------- --- Thank You --- -------- --------

Input Parameters:
   integrator                     = steep
   tinit                          = 0
   dt                             = 0.001
   nsteps                         = 50000
   init-step                      = 0
   simulation-part                = 1
   comm-mode                      = Linear
   nstcomm                        = 100
   bd-fric                        = 0
   ld-seed                        = -115590525
   emtol                          = 200
   emstep                         = 0.01
   niter                          = 20
   fcstep                         = 0
   nstcgsteep                     = 1000
   nbfgscorr                      = 10
   rtpi                           = 0.05
   nstxout                        = 0
   nstvout                        = 0
   nstfout                        = 0
   nstlog                         = 1000
   nstcalcenergy                  = 100
   nstenergy                      = 1000
   nstxout-compressed             = 0
   compressed-x-precision         = 1000
   cutoff-scheme                  = Verlet
   nstlist                        = 1
   ns-type                        = Grid
   pbc                            = xyz
   periodic-molecules             = false
   verlet-buffer-tolerance        = 0.005
   rlist                          = 1.2
   coulombtype                    = Cut-off
   coulomb-modifier               = Potential-shift
   rcoulomb-switch                = 0
   rcoulomb                       = 1.2
   epsilon-r                      = 1
   epsilon-rf                     = inf
   vdw-type                       = Cut-off
   vdw-modifier                   = Potential-shift
   rvdw-switch                    = 0
   rvdw                           = 1.2
   DispCorr                       = No
   table-extension                = 1
   fourierspacing                 = 0.12
   fourier-nx                     = 0
   fourier-ny                     = 0
   fourier-nz                     = 0
   pme-order                      = 4
   ewald-rtol                     = 1e-05
   ewald-rtol-lj                  = 0.001
   lj-pme-comb-rule               = Geometric
   ewald-geometry                 = 0
   epsilon-surface                = 0
   implicit-solvent               = No
   gb-algorithm                   = Still
   nstgbradii                     = 1
   rgbradii                       = 1
   gb-epsilon-solvent             = 80
   gb-saltconc                    = 0
   gb-obc-alpha                   = 1
   gb-obc-beta                    = 0.8
   gb-obc-gamma                   = 4.85
   gb-dielectric-offset           = 0.009
   sa-algorithm                   = Ace-approximation
   sa-surface-tension             = 2.05016
   tcoupl                         = No
   nsttcouple                     = -1
   nh-chain-length                = 0
   print-nose-hoover-chain-variables = false
   pcoupl                         = No
   pcoupltype                     = Isotropic
   nstpcouple                     = -1
   tau-p                          = 1
   compressibility (3x3):
      compressibility[    0]={ 0.00000e+00,  0.00000e+00,  0.00000e+00}
      compressibility[    1]={ 0.00000e+00,  0.00000e+00,  0.00000e+00}
      compressibility[    2]={ 0.00000e+00,  0.00000e+00,  0.00000e+00}
   ref-p (3x3):
      ref-p[    0]={ 0.00000e+00,  0.00000e+00,  0.00000e+00}
      ref-p[    1]={ 0.00000e+00,  0.00000e+00,  0.00000e+00}
      ref-p[    2]={ 0.00000e+00,  0.00000e+00,  0.00000e+00}
   refcoord-scaling               = No
   posres-com (3):
      posres-com[0]= 0.00000e+00
      posres-com[1]= 0.00000e+00
      posres-com[2]= 0.00000e+00
   posres-comB (3):
      posres-comB[0]= 0.00000e+00
      posres-comB[1]= 0.00000e+00
      posres-comB[2]= 0.00000e+00
   QMMM                           = false
   QMconstraints                  = 0
   QMMMscheme                     = 0
   MMChargeScaleFactor            = 1
qm-opts:
   ngQM                           = 0
   constraint-algorithm           = Lincs
   continuation                   = false
   Shake-SOR                      = false
   shake-tol                      = 0.0001
   lincs-order                    = 4
   lincs-iter                     = 1
   lincs-warnangle                = 30
   nwall                          = 0
   wall-type                      = 9-3
   wall-r-linpot                  = -1
   wall-atomtype[0]               = -1
   wall-atomtype[1]               = -1
   wall-density[0]                = 0
   wall-density[1]                = 0
   wall-ewald-zfac                = 3
   pull                           = false
   rotation                       = false
   interactiveMD                  = false
   disre                          = No
   disre-weighting                = Conservative
   disre-mixed                    = false
   dr-fc                          = 1000
   dr-tau                         = 0
   nstdisreout                    = 100
   orire-fc                       = 0
   orire-tau                      = 0
   nstorireout                    = 100
   free-energy                    = no
   cos-acceleration               = 0
   deform (3x3):
      deform[    0]={ 0.00000e+00,  0.00000e+00,  0.00000e+00}
      deform[    1]={ 0.00000e+00,  0.00000e+00,  0.00000e+00}
      deform[    2]={ 0.00000e+00,  0.00000e+00,  0.00000e+00}
   simulated-tempering            = false
   E-x:
      n = 0
   E-xt:
      n = 0
   E-y:
      n = 0
   E-yt:
      n = 0
   E-z:
      n = 0
   E-zt:
      n = 0
   swapcoords                     = no
   userint1                       = 0
   userint2                       = 0
   userint3                       = 0
   userint4                       = 0
   userreal1                      = 0
   userreal2                      = 0
   userreal3                      = 0
   userreal4                      = 0
grpopts:
   nrdf:         636
   ref-t:           0
   tau-t:           0
annealing:          No
annealing-npoints:           0
   acc:	           0           0           0
   nfreeze:           N           N           N
   energygrp-flags[  0]: 0

Using 1 MPI thread
Using 1 OpenMP thread 

Cut-off's:   NS: 1.2   Coulomb: 1.2   LJ: 1.2
System total charge: 2.000
Generated table with 1100 data points for 1-4 COUL.
Tabscale = 500 points/nm
Generated table with 1100 data points for 1-4 LJ6.
Tabscale = 500 points/nm
Generated table with 1100 data points for 1-4 LJ12.
Tabscale = 500 points/nm
Potential shift: LJ r^-12: -1.122e-01 r^-6: -3.349e-01, Coulomb -8e-01

Using SIMD 4x8 non-bonded kernels

Using Lorentz-Berthelot Lennard-Jones combination rule

Removing pbc first time

NOTE: Thread affinity setting failed. This can cause performance degradation.
      If you think your settings are correct, ask on the gmx-users list.

Initiating Steepest Descents
Started Steepest Descents on rank 0 Thu Sep  5 16:47:09 2019

Steepest Descents:
   Tolerance (Fmax)   =  2.00000e+02
   Number of steps    =        50000
           Step           Time
              0        0.00000

   Energies (kJ/mol)
           Bond            U-B    Proper Dih.  Improper Dih.          LJ-14
    9.16575e+01    1.48288e+02    3.28762e+02    2.97234e+00    7.76467e+01
     Coulomb-14        LJ (SR)   Coulomb (SR)      Potential Pressure (bar)
   -3.51798e+03   -2.39414e+02    1.52904e+03   -1.57903e+03    0.00000e+00

           Step           Time
              1        1.00000

           Step           Time
              2        2.00000

   Energies (kJ/mol)
           Bond            U-B    Proper Dih.  Improper Dih.          LJ-14
    7.25323e+01    1.52478e+02    3.26220e+02    1.03085e+00    6.91011e+01
     Coulomb-14        LJ (SR)   Coulomb (SR)      Potential Pressure (bar)
   -3.53081e+03   -2.43636e+02    1.53073e+03   -1.62235e+03    0.00000e+00

           Step           Time
              3        3.00000

           Step           Time
              4        4.00000

   Energies (kJ/mol)
           Bond            U-B    Proper Dih.  Improper Dih.          LJ-14
    2.01949e+01    1.28199e+02    3.23309e+02    8.30944e-01    7.06528e+01
     Coulomb-14        LJ (SR)   Coulomb (SR)      Potential Pressure (bar)
   -3.53747e+03   -2.43583e+02    1.54102e+03   -1.69685e+03    0.00000e+00

           Step           Time
              5        5.00000

           Step           Time
              6        6.00000

   Energies (kJ/mol)
           Bond            U-B    Proper Dih.  Improper Dih.          LJ-14
    2.12303e+01    1.29158e+02    3.20890e+02    7.19235e-01    6.87492e+01
     Coulomb-14        LJ (SR)   Coulomb (SR)      Potential Pressure (bar)
   -3.54008e+03   -2.45114e+02    1.53953e+03   -1.70492e+03    0.00000e+00

           Step           Time
              7        7.00000

           Step           Time
              8        8.00000

   Energies (kJ/mol)
           Bond            U-B    Proper Dih.  Improper Dih.          LJ-14
    1.77607e+01    1.24753e+02    3.19990e+02    7.17363e-01    6.88650e+01
     Coulomb-14        LJ (SR)   Coulomb (SR)      Potential Pressure (bar)
   -3.54348e+03   -2.45063e+02    1.54420e+03   -1.71226e+03    0.00000e+00

           Step           Time
              9        9.00000

   Energies (kJ/mol)
           Bond            U-B    Proper Dih.  Improper Dih.          LJ-14
    1.85138e+01    1.28621e+02    3.18694e+02    7.27293e-01    6.72357e+01
     Coulomb-14        LJ (SR)   Coulomb (SR)      Potential Pressure (bar)
   -3.54555e+03   -2.45683e+02    1.54339e+03   -1.71405e+03    0.00000e+00

           Step           Time
             10       10.00000

           Step           Time
             11       11.00000

   Energies (kJ/mol)
           Bond            U-B    Proper Dih.  Improper Dih.          LJ-14
    1.72252e+01    1.24964e+02    3.17890e+02    7.11829e-01    6.75168e+01
     Coulomb-14        LJ (SR)   Coulomb (SR)      Potential Pressure (bar)
   -3.54769e+03   -2.45622e+02    1.54648e+03   -1.71852e+03    0.00000e+00

           Step           Time
             12       12.00000

   Energies (kJ/mol)
           Bond            U-B    Proper Dih.  Improper Dih.          LJ-14
    1.79006e+01    1.28042e+02    3.16052e+02    7.12752e-01    6.62464e+01
     Coulomb-14        LJ (SR)   Coulomb (SR)      Potential Pressure (bar)
   -3.55022e+03   -2.46193e+02    1.54684e+03   -1.72062e+03    0.00000e+00

           Step           Time
             13       13.00000

   Energies (kJ/mol)
           Bond            U-B    Proper Dih.  Improper Dih.          LJ-14
    2.11304e+01    1.23591e+02    3.14953e+02    6.94221e-01    6.67217e+01
     Coulomb-14        LJ (SR)   Coulomb (SR)      Potential Pressure (bar)
   -3.55310e+03   -2.46012e+02    1.55121e+03   -1.72082e+03    0.00000e+00

           Step           Time
             14       14.00000

   Energies (kJ/mol)
           Bond            U-B    Proper Dih.  Improper Dih.          LJ-14
    1.83486e+01    1.28939e+02    3.14631e+02    7.05501e-01    6.57118e+01
     Coulomb-14        LJ (SR)   Coulomb (SR)      Potential Pressure (bar)
   -3.55224e+03   -2.46413e+02    1.54814e+03   -1.72217e+03    0.00000e+00

           Step           Time
             15       15.00000

           Step           Time
             16       16.00000

   Energies (kJ/mol)
           Bond            U-B    Proper Dih.  Improper Dih.          LJ-14
    1.79744e+01    1.25136e+02    3.13998e+02    6.89733e-01    6.61355e+01
     Coulomb-14        LJ (SR)   Coulomb (SR)      Potential Pressure (bar)
   -3.55397e+03   -2.46261e+02    1.55102e+03   -1.72529e+03    0.00000e+00

           Step           Time
             17       17.00000

           Step           Time
             18       18.00000

   Energies (kJ/mol)
           Bond            U-B    Proper Dih.  Improper Dih.          LJ-14
    1.71364e+01    1.27069e+02    3.13469e+02    6.88343e-01    6.56994e+01
     Coulomb-14        LJ (SR)   Coulomb (SR)      Potential Pressure (bar)
   -3.55425e+03   -2.46441e+02    1.55044e+03   -1.72619e+03    0.00000e+00

           Step           Time
             19       19.00000

   Energies (kJ/mol)
           Bond            U-B    Proper Dih.  Improper Dih.          LJ-14
    1.88031e+01    1.24796e+02    3.12579e+02    6.71257e-01    6.59222e+01
     Coulomb-14        LJ (SR)   Coulomb (SR)      Potential Pressure (bar)
   -3.55607e+03   -2.46365e+02    1.55294e+03   -1.72672e+03    0.00000e+00

           Step           Time
             20       20.00000

   Energies (kJ/mol)
           Bond            U-B    Proper Dih.  Improper Dih.          LJ-14
    1.71334e+01    1.27688e+02    3.12259e+02    6.74285e-01    6.53938e+01
     Coulomb-14        LJ (SR)   Coulomb (SR)      Potential Pressure (bar)
   -3.55579e+03   -2.46573e+02    1.55152e+03   -1.72769e+03    0.00000e+00

           Step           Time
             21       21.00000

           Step           Time
             22       22.00000

   Energies (kJ/mol)
           Bond            U-B    Proper Dih.  Improper Dih.          LJ-14
    1.75341e+01    1.25856e+02    3.11800e+02    6.63669e-01    6.56082e+01
     Coulomb-14        LJ (SR)   Coulomb (SR)      Potential Pressure (bar)
   -3.55682e+03   -2.46493e+02    1.55310e+03   -1.72875e+03    0.00000e+00


Steepest Descents converged to Fmax < 200 in 23 steps
Potential Energy  = -1.7287540e+03
Maximum force     =  1.7549588e+02 on atom 39
Norm of force     =  5.7503178e+01

	M E G A - F L O P S   A C C O U N T I N G

 NB=Group-cutoff nonbonded kernels    NxN=N-by-N cluster Verlet kernels
 RF=Reaction-Field  VdW=Van der Waals  QSTab=quadratic-spline table
 W3=SPC/TIP3p  W4=TIP4p (single or pairs)
 V&F=Potential and force  V=Potential only  F=Force only

 Computing:                               M-Number         M-Flops  % Flops
-----------------------------------------------------------------------------
 NB VdW [V&F]                             0.009683           0.010     0.0
 Pair Search distance check               0.214848           1.934     5.6
 NxN RF Elec. + LJ [V&F]                  0.504128          27.223    79.1
 NxN RF Electrostatics [V&F]              0.005888           0.212     0.6
 1,4 nonbonded interactions               0.014766           1.329     3.9
 Shift-X                                  0.004899           0.029     0.1
 Bonds                                    0.005014           0.296     0.9
 Propers                                  0.014030           3.213     9.3
 Impropers                                0.000276           0.057     0.2
 Virial                                   0.005934           0.107     0.3
-----------------------------------------------------------------------------
 Total                                                      34.409   100.0
-----------------------------------------------------------------------------


     R E A L   C Y C L E   A N D   T I M E   A C C O U N T I N G

On 1 MPI rank

 Computing:          Num   Num      Call    Wall time         Giga-Cycles
                     Ranks Threads  Count      (s)         total sum    %
-----------------------------------------------------------------------------
 Neighbor search        1    1         23       0.002          0.009   7.8
 Force                  1    1         23       0.006          0.029  24.8
 NB X/F buffer ops.     1    1         23       0.000          0.000   0.1
 Rest                                           0.015          0.079  67.3
-----------------------------------------------------------------------------
 Total                                          0.023          0.117 100.0
-----------------------------------------------------------------------------

               Core t (s)   Wall t (s)        (%)
       Time:        0.023        0.023      100.0
               (steps/hour)
Performance:      3672871.6
Finished mdrun on rank 0 Thu Sep  5 16:47:09 2019
