name,resname,SMILES,substructure
LIG0,L000,O=C(NCCOCCO)CCCCC1CCSS1,C1CCSS1
LIG1,L001,OCCNC(CCCCC1CCSS1)=O,C1CCSS1
LIG2,L002,NC(CCCCC1CCSS1)=O,C1CCSS1
LIG3,L003,OC(CCCCC1CCSS1)=O,C1CCSS1
LIG4,L004,O=C(NCCCC)CCCCC1CCSS1,C1CCSS1
LIG5,L005,O=C(NC1=CC=CC=C1)CCCCC2CCSS2,C1CCSS1
LIG6,L006,O=C(NCCC1=CC=C(OC)C(OC)=C1)C(NC(C2=CC=CC=C2)=O)CCCCNC(CCCCC3SSCC3)=O,C1CCSS1
LIG7,L007,O=C(NCCC1=CC=C(OC)C(OC)=C1)C(NC(C2CCCCC2)=O)CCCCNC(CCCCC3SSCC3)=O,C1CCSS1
LIG8,L008,O=C(NCCC1=CC=C(OC)C(OC)=C1)C(NC(CCC)=O)CCCCNC(CCCCC2SSCC2)=O,C1CCSS1
LIG9,L009,O=C(NCCC1=CC=C(OC)C(OC)=C1)C(NC(C2=CC=C(C(F)(F)F)C=C2)=O)CCCCNC(CCCCC3SSCC3)=O,C1CCSS1
LIG10,L010,O=C(NC1CCCCC1)C(NC(C2=CC=CC=C2)=O)CCCCNC(CCCCC3SSCC3)=O,C1CCSS1
LIG11,L011,O=C(NC1CCCCC1)C(NC(C2CCCCC2)=O)CCCCNC(CCCCC3SSCC3)=O,C1CCSS1
LIG12,L012,O=C(NC1CCCCC1)C(NC(CCC)=O)CCCCNC(CCCCC2SSCC2)=O,C1CCSS1
LIG13,L013,O=C(NC1CCCCC1)C(NC(C2=CC=C(C(F)(F)F)C=C2)=O)CCCCNC(CCCCC3SSCC3)=O,C1CCSS1
LIG14,L014,O=C(NCCCC)C(NC(C1=CC=CC=C1)=O)CCCCNC(CCCCC2SSCC2)=O,C1CCSS1
LIG15,L015,O=C(NCCCC)C(NC(C1CCCCC1)=O)CCCCNC(CCCCC2SSCC2)=O,C1CCSS1
LIG16,L016,O=C(NCCCC)C(NC(CCC)=O)CCCCNC(CCCCC1SSCC1)=O,C1CCSS1
LIG17,L017,O=C(NCCCC)C(NC(C1=CC=C(C(F)(F)F)C=C1)=O)CCCCNC(CCCCC2SSCC2)=O,C1CCSS1
LIG18,L018,O=C(NC(C(O)=O)C1=CC=C(O)C=C1)C(NC(C2=CC=CC=C2)=O)CCCCNC(CCCCC3SSCC3)=O,C1CCSS1
LIG19,L019,O=C(NC(C(O)=O)C1=CC=C(O)C=C1)C(NC(C2CCCCC2)=O)CCCCNC(CCCCC3SSCC3)=O,C1CCSS1
LIG20,L020,O=C(NC(C(O)=O)C1=CC=C(O)C=C1)C(NC(CCC)=O)CCCCNC(CCCCC2SSCC2)=O,C1CCSS1
LIG21,L021,O=C(NC(C(O)=O)C1=CC=C(O)C=C1)C(NC(C2=CC=C(C(F)(F)F)C=C2)=O)CCCCNC(CCCCC3SSCC3)=O,C1CCSS1
LIG22,L022,O=C(NCC1CCCO1)C(NC(C2=CC=CC=C2)=O)CCCCNC(CCCCC3SSCC3)=O,C1CCSS1
LIG23,L023,O=C(NCC1CCCO1)C(NC(C2CCCCC2)=O)CCCCNC(CCCCC3SSCC3)=O,C1CCSS1
LIG24,L024,O=C(NCC1CCCO1)C(NC(CCC)=O)CCCCNC(CCCCC2SSCC2)=O,C1CCSS1
LIG25,L025,O=C(NCC1CCCO1)C(NC(C2=CC=C(C(F)(F)F)C=C2)=O)CCCCNC(CCCCC3SSCC3)=O,C1CCSS1
LIG26,L026,O=C(NCCCN(C)C)C(NC(C1=CC=CC=C1)=O)CCCCNC(CCCCC2SSCC2)=O,C1CCSS1
LIG27,L027,O=C(NCCCN(C)C)C(NC(C1CCCCC1)=O)CCCCNC(CCCCC2SSCC2)=O,C1CCSS1
LIG28,L028,O=C(NCCCN(C)C)C(NC(CCC)=O)CCCCNC(CCCCC1SSCC1)=O,C1CCSS1
LIG29,L029,O=C(NCCCN(C)C)C(NC(C1=CC=C(C(F)(F)F)C=C1)=O)CCCCNC(CCCCC2SSCC2)=O,C1CCSS1
LIG30,L030,O=C(NCC(O)C(C(C(CO)O)O)O)C(NC(C1=CC=CC=C1)=O)CCCCNC(CCCCC2SSCC2)=O,C1CCSS1
LIG31,L031,O=C(NCC(O)C(C(C(CO)O)O)O)C(NC(C1CCCCC1)=O)CCCCNC(CCCCC2SSCC2)=O,C1CCSS1
LIG32,L032,O=C(NCC(O)C(C(C(CO)O)O)O)C(NC(CCC)=O)CCCCNC(CCCCC1SSCC1)=O,C1CCSS1
LIG33,L033,O=C(NCC(O)C(C(C(CO)O)O)O)C(NC(C1=CC=C(C(F)(F)F)C=C1)=O)CCCCNC(CCCCC2SSCC2)=O,C1CCSS1
LIG34,L034,O=C(NC1=CC=C(CC(NC(CC2CCCC2)=O)C(NCCCC)=O)C=C1)CCCCC3SSCC3,C1CCSS1
LIG35,L035,O=C(NC1=CC=C(CC(NC(CC(CC)C)=O)C(NC2CCCCC2)=O)C=C1)CCCCC3SSCC3,C1CCSS1
LIG36,L036,O=C(NC1=CC=C(CC(NC(CC2CCCC2)=O)C(NCCC3=CC=C(OC)C(OC)=C3)=O)C=C1)CCCCC4SSCC4,C1CCSS1
LIG37,L037,O=C(NC1=CC=C(CC(NC(CC2CCCC2)=O)C(NCC3=CC=C(OCO4)C4=C3)=O)C=C1)CCCCC5SSCC5,C1CCSS1
LIG38,L038,O=C(NC1=CC=C(CC(NC(CC2CCCC2)=O)C(NC(C3=CC=C(O)C=C3)C(OC)=O)=O)C=C1)CCCCC4SSCC4,C1CCSS1
LIG39,L039,O=C(NC1=CC=C(CC(NC(CC2CCCC2)=O)C(O)=O)C=C1)CCCCC3SSCC3,C1CCSS1
LIG40,L040,O=C(NC1=CC=C(CC(NC(CC2CCCC2)=O)C(OC)=O)C=C1)CCCCC3SSCC3,C1CCSS1
LIG41,L041,O=C(NC1=CC=C(CC(NC(C2=CC=CC=C2)=O)C(NCCCC)=O)C=C1)CCCCC3SSCC3,C1CCSS1
LIG42,L042,O=C(NC1=CC=C(CC(NC(C2=CC=CC=C2)=O)C(NC3CCCCC3)=O)C=C1)CCCCC4SSCC4,C1CCSS1
LIG43,L043,O=C(NC1=CC=C(CC(NC(C2=CC=CC=C2)=O)C(NCCC3=CC(OC)=C(OC)C=C3)=O)C=C1)CCCCC4SSCC4,C1CCSS1
LIG44,L044,O=C(NC1=CC=C(CC(NC(C2=CC=CC=C2)=O)C(NCC3=CC=C(OCO4)C4=C3)=O)C=C1)CCCCC5SSCC5,C1CCSS1
LIG45,L045,O=C(NC1=CC=C(CC(NC(C2=CC=CC=C2)=O)C(NC(C3=CC=C(O)C=C3)C(OC)=O)=O)C=C1)CCCCC4SSCC4,C1CCSS1
LIG46,L046,O=C(NC1=CC=C(CC(NC(C2=CC=CC=C2)=O)C(O)=O)C=C1)CCCCC3SSCC3,C1CCSS1
LIG47,L047,O=C(NC1=CC=C(CC(NC(C2=CC=CC=C2)=O)C(OC)=O)C=C1)CCCCC3SSCC3,C1CCSS1
LIG48,L048,O=C(NC1=CC=C(CC(NC(CC2=CC=CC=C2)=O)C(NCCCC)=O)C=C1)CCCCC3SSCC3,C1CCSS1
LIG49,L049,O=C(NC1=CC=C(CC(NC(CC2=CC=CC=C2)=O)C(NC3CCCCC3)=O)C=C1)CCCCC4SSCC4,C1CCSS1
LIG50,L050,O=C(NC1=CC=C(CC(NC(CC2=CC=CC=C2)=O)C(NCCC3=CC(OC)=C(OC)C=C3)=O)C=C1)CCCCC4SSCC4,C1CCSS1
LIG51,L051,O=C(NC1=CC=C(CC(NC(CC2=CC=CC=C2)=O)C(NCC3=CC=C(OCO4)C4=C3)=O)C=C1)CCCCC5SSCC5,C1CCSS1
LIG52,L052,O=C(NC1=CC=C(CC(NC(CC2=CC=CC=C2)=O)C(NC(C3=CC=C(O)C=C3)C(OC)=O)=O)C=C1)CCCCC4SSCC4,C1CCSS1
LIG53,L053,O=C(NC1=CC=C(CC(NC(CC2=CC=CC=C2)=O)C(O)=O)C=C1)CCCCC3SSCC3,C1CCSS1
LIG54,L054,O=C(NC1=CC=C(CC(NC(CC2=CC=CC=C2)=O)C(OC)=O)C=C1)CCCCC3SSCC3,C1CCSS1
LIG55,L055,O=C(NC1=CC=C(CC(NC(CCC=C)=O)C(NCCCC)=O)C=C1)CCCCC2SSCC2,C1CCSS1
LIG56,L056,O=C(NC1=CC=C(CC(NC(CCC=C)=O)C(NC2CCCCC2)=O)C=C1)CCCCC3SSCC3,C1CCSS1
LIG57,L057,O=C(NC1=CC=C(CC(NC(CCC=C)=O)C(NCCC2=CC(OC)=C(OC)C=C2)=O)C=C1)CCCCC3SSCC3,C1CCSS1
LIG58,L058,O=C(NC1=CC=C(CC(NC(CCC=C)=O)C(NCC2=CC(OCO3)=C3C=C2)=O)C=C1)CCCCC4SSCC4,C1CCSS1
LIG59,L059,O=C(NC1=CC=C(CC(NC(CCC=C)=O)C(NC(C2=CC=C(O)C=C2)C(OC)=O)=O)C=C1)CCCCC3SSCC3,C1CCSS1
LIG60,L060,O=C(NC1=CC=C(CC(NC(CCC=C)=O)C(O)=O)C=C1)CCCCC2SSCC2,C1CCSS1
LIG61,L061,O=C(NC1=CC=C(CC(NC(CCC=C)=O)C(OC)=O)C=C1)CCCCC2SSCC2,C1CCSS1
LIG62,L062,O=C(NC1=CC=C(CC(NC(C2=CC=C(Cl)C=C2)=O)C(NCCCC)=O)C=C1)CCCCC3SSCC3,C1CCSS1
LIG63,L063,O=C(NC1=CC=C(CC(NC(C2=CC=C(Cl)C=C2)=O)C(NC3CCCCC3)=O)C=C1)CCCCC4SSCC4,C1CCSS1
LIG64,L064,O=C(NC1=CC=C(CC(NC(C2=CC=C(Cl)C=C2)=O)C(NCCC3=CC=C(OC)C(OC)=C3)=O)C=C1)CCCCC4SSCC4,C1CCSS1
LIG65,L065,O=C(NC1=CC=C(CC(NC(C2=CC=C(Cl)C=C2)=O)C(NCC3=CC=C(OCO4)C4=C3)=O)C=C1)CCCCC5SSCC5,C1CCSS1
LIG66,L066,O=C(NC1=CC=C(CC(NC(C2=CC=C(Cl)C=C2)=O)C(NC(C3=CC=C(O)C=C3)C(OC)=O)=O)C=C1)CCCCC4SSCC4,C1CCSS1
LIG67,L067,O=C(NC1=CC=C(CC(NC(C2=CC=C(Cl)C=C2)=O)C(O)=O)C=C1)CCCCC3SSCC3,C1CCSS1
LIG68,L068,O=C(NC1=CC=C(CC(NC(C2=CC=C(Cl)C=C2)=O)C(OC)=O)C=C1)CCCCC3SSCC3,C1CCSS1
LIG69,L069,O=C(NC1=CC=C(CC(NS(=O)(C2=CC=C(C)C=C2)=O)C(NCCCC)=O)C=C1)CCCCC3SSCC3,C1CCSS1
LIG70,L070,O=C(NC1=CC=C(CC(NS(=O)(C2=CC=C(C)C=C2)=O)C(NC3CCCCC3)=O)C=C1)CCCCC4SSCC4,C1CCSS1
LIG71,L071,O=C(NC1=CC=C(CC(NS(=O)(C2=CC=C(C)C=C2)=O)C(NCCC3=CC(OC)=C(OC)C=C3)=O)C=C1)CCCCC4SSCC4,C1CCSS1
LIG72,L072,O=C(NC1=CC=C(CC(NS(=O)(C2=CC=C(C)C=C2)=O)C(NCC3=CC=C(OCO4)C4=C3)=O)C=C1)CCCCC5SSCC5,C1CCSS1
LIG73,L073,O=C(NC1=CC=C(CC(NS(=O)(C2=CC=C(C)C=C2)=O)C(NC(C3=CC=C(O)C=C3)C(OC)=O)=O)C=C1)CCCCC4SSCC4,C1CCSS1
LIG74,L074,O=C(NC1=CC=C(CC(NS(=O)(C2=CC=C(C)C=C2)=O)C(O)=O)C=C1)CCCCC3SSCC3,C1CCSS1
LIG75,L075,O=C(NC1=CC=C(CC(NS(=O)(C2=CC=C(C)C=C2)=O)C(OC)=O)C=C1)CCCCC3SSCC3,C1CCSS1
LIG76,L076,S1SC(CC1)CCCCC(NCCOCCOCCO)=O,C1CCSS1
LIG77,L077,S1SC(CC1)CCCCC(NCCCN)=O,C1CCSS1
LIG78,L078,S1SC(CC1)CCCCC(O)=O,C1CCSS1
LIG79,L079,S1SC(CC1)CCCCC(NCCOCCOCCOCCOC)=O,C1CCSS1
LIG80,L080,S1SC(CC1)CCCCC(NCC(C(C(C(O)O)O)O)O)=O,C1CCSS1
LIG81,L081,S1SC(CC1)CCCCC(Nc1ccccc1)=O,C1CCSS1
LIG82,L082,S1SC(CC1)CCCCC(NC(C(C)(C)C)C)=O,C1CCSS1
LIG83,L083,S1SC(CC1)CCCCC(N(CCC)CCC)=O,C1CCSS1
LIG84,L084,S1SC(CC1)CCCCC(NC(CC(C)C)C)=O,C1CCSS1
LIG85,L085,S1SC(CC1)CCCCC(NCCCCCC)=O,C1CCSS1
LIG86,L086,S1SC(CC1)CCCCC(NC12CC3CC(CC(C3)C1)C2)=O,C1CCSS1
LIG87,L087,S1SC(CC1)CCCCC(NC1CCCCCC1)=O,C1CCSS1
LIG88,L088,S1SC(CC1)CCCCC(NCCCCCCCCCCC)=O,C1CCSS1
LIG89,L089,S1SC(CC1)CCCCC(N)=O,C1CCSS1
LIG90,L090,S1SC(CC1)CCCCC(NC1CCCCC1)=O,C1CCSS1
